('459917', '19794783', 'CS1410', '5', '3', '5', 'This professor will heckle you quite a bit, but you get use to it a few weeks in.  I believe he really cares about the students and his teaching style I believe is his attempt to get you to figure it out and therefore be better in your field.  A lot of assignments were hard plus some were very vague, but were fine overall.')
('459917', '19725145', 'CS1410', '5', '3', '5', 'Dr. Allen is very smart and caring to students. The class is challenging but I felt prepared for my next classes and the hard work was worth it.')
('459917', '19355929', 'CS1410', '4', '4', '4', "Don't be scared off by the ridiculously hard first assignment. They get easier after that. He doesn't believe in 100% on tests so they're a bit harder but not unreasonable. I looked forward to class everyday. We always gave each other a lot of crap and I never went a day without laughing. The best way to learn from him is to ask questions.")
('459917', '18653618', 'CS1410', '2', '2', '2', 'He never uses examples and he skims through all of them on the powerpoint. He is funny but he is kind of crazy. He did bring donuts the last day.')
('459917', '18337075', 'CS1410', '3', '3', '2', "Very humorous class to sit through, though he essentially rambles nonsense.  You can get information from him, but you just have to argue and get heckled for about twenty minutes and eventually another student will answer the question for you.  Fun, but I'd recommend just reading a C++ textbook than paying money for a class like this.")
('459917', '16823354', 'CSIII001', '5', '4', '5', 'Excellent Prof. Very comprehensible, willing to help, and way funny.')
('459917', '16516828', 'CS2200', '5', '4', '5', 'Great professor, among the top two I had in CS there.  Knows his stuff, explains it well.  Makes you want to attend class.')
('459917', '16492568', 'CS2450', '5', '4', '5', 'Excellent Prof. Easy to understand and very well prepared. Funny and a compressible')
('459917', '15748987', 'CSCOMP', '2', '5', '2', 'Why do I pay tuition for outdated professors&#63;  At least easy A.')
('459917', '14961061', 'CS5200', '1', '5', '2', 'Seriously&#63;  Class is as useless as his powerpoint slides.  Absolutely nothing new was learned in this class.  Nothing. He just tells stories and nobody learns anything.  period.')
('459917', '13851879', 'A2420', '4', '3', '5', 'Outstanding Teacher!  My favorite at USU.  He knows his stuff, and teaches it well.  Classroom is very relaxed, and its pretty open discussion.  Highly recommended over any other teacher.')
('459917', '13613139', 'CS2250', '5', '3', '5', 'He keeps things interesting')
('459917', '12980350', 'CS2420', '5', '4', '4', 'Good professor.  Funny, makes class interesting, but sometimes he relies too much on powerpoint slides.')
('459917', '10737766', 'COMPILERS', '5', '4', '4', 'By far the most entertaining computer science teacher.')
('459917', '10276109', 'CS22001720', '5', '3', '5', 'No Comments')
('459917', '3356118', 'C1', '5', '4', '5', 'A great teacher.  Willing to take the time to help his students and makes class enjoyable.  The projects can be hard at times, but will help you to know your stuff')
('459917', '2777823', 'COMPILERS', '5', '5', '5', 'No Comments')
('459917', '2469490', 'CS2200', '5', '1', '5', "Really funny, class is very enjoyable, you'll actually get an education from him, but it you'll actually have to work.")
