('1740678', '22973116', 'ENG2010', '5', '5', '5', 'I love her! She is super helpful and I enjoy going to her class.')
('1740678', '22200565', 'ENGL2010', '5', '4', '5', 'A great teacher with really straight forward teach style, something commonly lacking in English professors. Easy to approach for help and on top of everything she is chill human being.')
('1740678', '21854799', 'ENG2010', '5', '4', '5', 'Hands down the most interesting English/ any teacher ever. Loved class and actually became an English minor after this course. I loved going to class and it was a great feeling. Gotta love those logical fallacies :)')
('1740678', '21557088', 'ENGLISH2012', '5', '4', '5', 'she was amazing!')
