('1917356', '24570372', 'HIST1500', '3', '2', '2', 'Tough class, lots of reading to  keep up on. Tough Professor. Makes you feel dumb most of the time. Not a lot of respect for people. Highly advise not taking ANY classes from this man.')
('1917356', '23812212', 'HIST1500', '4', '3', '3', 'Timothy Daniels is an enthusiastic and great guy! There is reading every night, however, he never checks the reading it is mainly just to better understand the material. The tests can be difficult, but he is way helpful and nice!')
('1917356', '23765772', '1500', '5', '3', '4', 'interesting class')
