('168900', '25155811', 'USU1010', '5', '5', '5', "Super fun teacher and doesn't require a lot of assignments. Just show up and be sure to participate.")
('168900', '24539945', '4610', '5', '5', '5', "She's awesome.  Does a lot of blended classroom style teaching, meaning teaches us, and then either had us work in class on homework, or gives us the time normally in class to do things that could be easily done at home,  she strives to help every student improve no matter where they start and grades off of improvement.  She's an excellent prof! ")
('168900', '18648234', 'FREN3060', '5', '5', '5', 'Great class, easy, but really well taught')
('168900', '11277027', '3010', '5', '5', '5', "Easy class, you don't even have to go! she is hot.")
('168900', '11006494', 'FREN3060', '5', '5', '5', 'cakewalk')
('168900', '10316920', 'FOODINCULTURE', '5', '5', '5', 'yay!')
('168900', '3939958', 'FREN4060', '5', '4', '5', 'Sarah presents material very clearly.  She has fun with the topics.  She places the accountability on the student,the way it should be, yet she gives enough information for any student to excel. Attendence is vital but she will work with you when situations arise.')
('168900', '1429707', '2010', '5', '3', '5', 'I learned so much more in this class than any other class. Made the past tenses so easy. The class presentations were fun and had a lot of food!!!')
('168900', '723865', 'FREN1010', '5', '4', '5', "I love this class. I'm gonna miss it. The prof is funny and makes it easy to learn!")
