('457515', '13620306', 'ENGSECT', '5', '5', '5', 'totally kicked A, was the best class that I have ever had. he likes to make you believe what he believes, but really I think he just enjoys arguing with people. So if you are a strong opinionated person and not afraid to voice it then you should do really well in his class')
('457515', '4028771', 'ENG1010', '5', '3', '5', 'No Comments')
('457515', '2456575', 'ENGL2010', '4', '3', '4', 'A little liberal for my liking, but not a bad professor.  Be prepared to make lots of copies of papers for class discussion.')
