('639361', '10492389', 'PHILOSOPHY', '1', '4', '1', 'No Comments')
('639361', '10400598', 'PHILOSOPHY', '3', '4', '4', 'He is a great teacher that loves what he teaches.   He makes class interesting.')
('639361', '10359021', 'PHILOSOPHY2400', '5', '1', '5', 'No Comments')
('639361', '4063374', 'PHILOSOPHY', '5', '4', '5', "This guy is pretty much everyone's favorite teacher. If you've had a class from him, you know what I mean. If not... take one! Get that Humanities requirement out of the way, and learn something too!")
