('1566599', '20973476', 'ENG1010', '5', '3', '5', "I can't say enough good things about Mike. He is easy-going, fun, and an overall great person. I'm very pleased with his methods and would recommend him to anyone. Take his class! You'll be happy that you did!")
('1566599', '20164217', 'ENGL2010', '5', '4', '5', 'Extremely interested in students. Great teacher! Wants you to succeed.')
('1566599', '19957714', 'ENGL2010', '4', '5', '5', "Mike is great! Very helpful, wants his students to do well. He's always positive. He's a fun guy as well. He loves zombies and always uses them for writing examples.")
('1566599', '18445508', 'ENG1010', '4', '5', '3', "He's dorky. Very easy to get along with. Teaches clearly and not hard to understand. Also a lot of fun and understanding. This is an easy A- of course you have to do your work, but its not anything complicated. :)")
