('1008120', '19188557', 'ANTH4100', '3', '2', '3', "Interesting subject, but a lot of potentially dry material. He's good at conveying the information, but I'll be honest, he reminds me a bit of Ben Stein. After the first two weeks, I realized he kept slipping deadpan jokes into his lectures. Class got a lot more fun when I started trying to catch when he was messing with us. Tough tests though.")
('1008120', '18220457', 'LING4100', '2', '5', '3', 'Jon was way boring. I took naps all the time in that class ans still passed with an A. He explains the material but you can teach yourself.')
('1008120', '16164471', 'LING4000', '3', '4', '3', "Nice guy, boring, but it's a big class and you don't really have to come.  He does try though.")
('1008120', '14922584', 'LING4100', '4', '4', '3', 'Pretty easy class, and the professor was kind of bland but still enjoyable. He has a dry sense of humor that is kind of fun.')
('1008120', '14295809', 'LING4100', '1', '2', '1', 'Very boring. Can only explain things one way. Prepare to take an hour knap everyday.')
('1008120', '13329740', 'LING4100', '1', '2', '1', 'This class is very interesting if you can teach yourself. The professor is little to no help and has trouble explaining the material.')
