('394378', '17892242', 'SOC1020', '2', '2', '2', "I took her class online and she is completely unreasonable. I always get &quot;A's&quot; or &quot;B's&quot; on my papers and she constantly grades me at a &quot;C.&quot; Her quizzes are based on what you memorize factually not analytically. She is also a very lazy grader- not grading discussion questions until the end of the term&#63; Avoid Mannon, especially if you love sociology.")
('394378', '17405046', 'SOC300', '4', '4', '3', "She uses alot of bad words which she doesn't have to in her classes, nd she talks alot, wayyyy and far away from the subject. It's aboring class too!")
('394378', '16301711', 'SOC345', '4', '4', '5', "She really listens to her students and I like her alot for that.  But you need to show up for class.  She doesnt take roll, but you'll feel it if you miss some of the lecture material.  Its easy to fall behind.  She really loves her subject though.  It shows.")
('394378', '13879830', 'SOC3010', '4', '2', '3', "She's a good teacher--her lectures are interesting and she has a fun personality. She, however, is an unreasonably hard grader. Make sure you know what she's looking for in an essay! And don't let the easiness of her class mislead you about the difficulty of her assignments.")
('394378', '12908995', 'SOC3010', '1', '1', '1', 'Terrible!')
('394378', '11352892', 'SOC3010', '4', '4', '5', 'She is very enthusiastic and easy to listen to.  The only bad thing is you have to write a long essay other then that she is an excellent teacher.')
('394378', '10893217', 'RCG', '5', '3', '5', "she's the best!!!  take her class")
('394378', '10508960', 'RACECLASSGEND', '5', '5', '5', 'Suzie rocks the freekin Cazbah!!')
('394378', '10237754', 'RACECLASSGENDER', '5', '4', '5', 'No Comments')
('394378', '2027947', 'RACECLASS', '1', '3', '1', 'No Comments')
