('685715', '25321343', 'MKT201', '4', '3', '4', 'Great professor!')
('685715', '16023499', 'JCOM2300', '3', '4', '3', "he was pretty nice and cool, however he was unclear about course objectives and didn't teach much. I never went and got an A.")
('685715', '15717099', 'JCOM2300', '5', '4', '5', 'Troy is awesome! He has real knowledge on the subject, and most of his lectures have some real meat to them. Very real-world class. I loved it! Sometimes a bit vague on what you were supposed to be learning that day, but def still useful info! Take him before he moves over to the college of business! Lucky business kids...')
('685715', '11949537', 'JCOM2300', '4', '3', '5', 'Troy is a great teacher. He has actually done the stuff he teaches about and he really wants you to do well.')
('685715', '11844157', 'PR', '3', '4', '5', 'Troy is a Super great professor and knows the industry. He is great to offer good criticism but could improve on providing clarity in instruction but is great at understanding students and can give great cousel in things dealing with the future. I trust Troy. Great Professro.')
('685715', '11255462', 'JCOM2300', '4', '4', '4', 'troy is a stud, and is one of the best teachers that i have ever had.  he cares about the students and teaches things that are truly applicable.')
('685715', '10936276', 'JCOM5300', '5', '3', '5', 'No Comments')
