('345263', '12676087', 'SOC1010', '5', '4', '5', 'No Comments')
('345263', '2268859', 'PSY1000', '5', '2', '5', 'No Comments')
('345263', '1717961', 'SOC1010', '5', '3', '5', 'No Comments')
('345263', '1677128', 'SOC1010', '5', '3', '5', 'No Comments')
