('417402', '23693806', 'PR', '5', '3', '4', 'Very helpful, committed to his students, thorough knowledge of the subject matter. A real pleasure.')
('417402', '12151969', 'JCOM2300', '1', '2', '4', 'Les was a hard, but good teacher.  I realized just how much he taught me after I graduated and went to the &quot;real world&quot;.')
('417402', '11844140', 'PR', '3', '4', '3', 'Les is a nice person, and I think he knows a lot about the field but asking a small questions results in a long explanation mostly about stuff you already knew. He is not critcal enough about your work. Everything looks super great in his eyes. Be more tough Les, we need the criticism.')
('417402', '11773462', 'JCOM3300', '4', '2', '5', 'Les is very professional. An incredible writer. His instruction is helpful in the professional work place. He is a fabulous teacher.')
('417402', '10365174', 'INTROTOPR', '1', '3', '1', 'No Comments')
('417402', '10365149', 'PRAGENCY', '1', '3', '2', 'No Comments')
('417402', '2205550', 'JCOM2100', '1', '2', '1', 'The man knows his subject, he just can\xc3\x82\xc2\xb4t seem communicate it to the students. Very boring, but mandatory lectures. No tests, but lots of group work.')
