('189988', '14856458', 'MATH1210', '4', '1', '4', "A good professor, that really knows his stuff. His tests are hard, really hard, but he's fair. He's kinda monotone though. But he's a great guy")
('189988', '12379162', 'MATH1220', '5', '3', '5', 'Eric is a great professor.  He really understands what he is teaching and goes out of his way to make sure you understand.  His tests are hard, but they are hard for everyone.  He will curve the grades according to class averages.  He is really excited to be teaching which makes listening to him that much easier.  Excellent!')
('189988', '10824639', '1220', '5', '2', '5', "He really knows his math and can really teach it.  The only problem is his horribly hard tests.  If all you want is to easily pass your math class, don't take it from him.  But if you really want to understand the material, he's great.")
('189988', '10498900', 'MATH1220', '4', '3', '5', 'No Comments')
('189988', '10330405', 'MATH2210', '5', '1', '4', 'No Comments')
('189988', '1211254', 'MATH2210', '4', '2', '4', "If you want a teacher that actually knows how to teach Math he's the one for you.  Definantly knows his stuff, but he teaches Math in a logically way, so if you want all kinds of metaphors or something, not the teacher for you.")
('189988', '1168003', 'MATH2020', '3', '2', '3', 'No Comments')
('189988', '1167792', 'MATH1210', '4', '3', '4', 'While this professor is a total math geek, he does speak english as a native language, and thus is much easier to understand than the majority of math instructors at USU')
('189988', '842727', 'MATH1220', '3', '2', '3', "This guy is a total math geek. Unless you really love math and/or that's your major, don't take math from Rowley.")
