('1789013', '25762234', 'ENGL2010', '3', '4', '2', 'A lot of busy work more than learning work.  I did well in her class and got an A.')
('1789013', '25741173', 'ENGL2010', '4', '3', '4', 'I took this class online and really enjoyed it. She is lecturer at Clemson University as well.')
('1789013', '22847043', 'ENGL2010', '1', '2', '1', "She is a horrible teacher. She doesn't explain things in a clear way at all. Just gives busy work. Do not take her class")
