('136052', '22325162', 'GEOG1300001', '4', '4', '3', 'He is a fairly good teacher.  You can tell he has a huge amount of experience. However, many times he showed outdated videos about something that he could have easily covered in half the time it took to watch the video. As long as you read the text book and pay attention to most of the lecture you should be fine.')
('136052', '14665144', 'GEOG1400', '4', '4', '4', "Very nice guy, really knows his stuff and is passionate. Can't help but respect the guy ... which makes you feel really guilty when you fall asleep in the class!")
('136052', '14471313', 'GEOG1400', '1', '3', '1', 'His tests were pretty easy but his classes were easy to fall asleep in.')
('136052', '14208996', 'GEO1500', '4', '4', '4', 'I liked him and his class, he came out of retirement to teach the class. He has a ton of experience, loved his stories about China, Russia, and Africa.')
('136052', '10732874', 'WORLDGEOGRAPHY', '5', '4', '5', 'No Comments')
('136052', '2565925', 'GEOG1010', '3', '3', '2', 'you can tell its his last year as he puts up the chapter outlines provided by the text book company and reads them while we write, couple movies than a pretty hard test. but you can tell hes had alot of experiance in geography, he has some good stories.')
('136052', '587021', '1030', '5', '5', '5', 'very easy, sometimes boring')
