('1072876', '20694914', 'MATH950', '5', '4', '5', "I HATED math, now I don't:) Thanks to her!!")
('1072876', '20427871', 'MATH0950', '5', '5', '5', 'Best Professor! Great Class, Learned a ton!!')
('1072876', '19211460', 'MATH1050', '5', '5', '5', 'Entertaining but most of all she gives you the Ah Ha moment  you need in Math.')
('1072876', '16105950', 'MATH1050', '5', '3', '5', 'She is the best math teacher you will ever find.  she will make sure you know what you need to know for every assignment,quiz,test, and final.  I 100% reccomend her if you struggle with math.')
('1072876', '15586584', 'MATH1050', '5', '3', '5', 'I hate Math but Jeanie is awesome and made it bearable')
('1072876', '13801956', 'MATH1050', '5', '3', '5', "She teaches at the Brigham City extension. Because of her, I got through math 1050 after having a very difficult time at Weber State. Attendance isn't mandatory, but if you miss clas syou will miss out. Very funny and works hard to help inany way she can.")
