('652987', '24628914', '1140', '5', '1', '5', "Professor is the greatest! He gives the toughest tests but he basically tells you what's going to be on the test. If you study really well, you should be fine. Just work hard. His lectures are incredible! He knows so much about his topic. I highly recommend his piano pedagogy class. ")
('652987', '20824293', 'MUSC1430', '4', '1', '4', "Very specific on what he is going to test on.  Doesn't use the book.  Everything based on his educated opinion.  Very interesting")
('652987', '19633709', 'MUSC4410', '5', '1', '5', "Fantastic professor. Don't know of a class where I have learned more in my life. Extremely knowledgeable and resourceful.")
('652987', '14837834', 'KBRD101', '5', '2', '5', 'Professor is the best!')
('652987', '14805787', 'MUSIC1010', '4', '1', '5', 'No Comments')
