('673479', '11906679', 'ENGL2010', '5', '4', '5', 'Great teacher. She brought us bagels sometimes. Really helped us all to get the work done.')
('673479', '11396187', 'ENGLISH1010', '5', '4', '5', 'No Comments')
('673479', '10806899', 'ENGLISH1010', '5', '5', '5', 'SHE IS HOT!!! I MISS THAT CLASS')
