('391452', '15682208', 'ID1780', '4', '2', '5', 'One of the best classes I have ever had. But you have to have to go, there are a lot of pop quizzes and you cover a lot everyday.  But he is a great teacher, very passionate about what he does. Knows his stuff.')
('391452', '13979285', 'ID3750', '5', '2', '5', 'Very Passionate!!!')
('391452', '13463673', 'ID3750', '5', '3', '5', 'Great class.  Learned a lot.  Looking forward to taking the other portion.')
('391452', '12846156', 'STUDISR', '5', '1', '5', 'He is a relentless taskmaster.  Though at times every student will curse his name, there is no other way to achieve the great things every student in his class does.  He inspires and instructs.  He lives and breathes design and exudes an air of excellence that pushes students to strive for nothing less than perfection.')
('391452', '12572088', 'ID3740', '4', '5', '5', "Darren rocks. This is one of the most amazing classes I've ever taken. Not hard, but you have to be to class. Miss even a couple classes and you'll be seriously behind.")
('391452', '11440007', 'ID1790', '5', '2', '5', "Expects a lot out of you and pushes you to do your best. I loved this class and it wasn't to hard as long as you kept up on your projects.FAVORITE class I've ever had!")
('391452', '11264158', 'ID3730', '4', '2', '5', 'Very enthusiatic teacher, always available for extra help. He has high expectations and will push you to do your best.')
('391452', '2004209', 'ID1790', '4', '4', '4', "Very tedious class, lots of projects and deadlines. No final. Don't miss class, lots of pop quizzes.")
