('929483', '16522872', 'AV1130', '5', '3', '5', 'Great teacher with lots of real world experience, test were graded a little tough! Overall awesome!')
('929483', '14994937', 'AV2330', '4', '3', '4', 'No Comments')
('929483', '12531656', 'AV2520', '4', '3', '5', 'Nolan is a great teacher. The only complaint that we had in instrument ground was that the class environment was not challenging enough to prepare us for the tests, which were quite hard. (Of course, being FAA tests they have to be hard.)')
