('1169901', '16581754', 'MUSC4650', '5', '2', '4', 'No Comments')
('1169901', '14809254', 'MUSC4600', '4', '3', '4', 'He is a way good professor. He understands so much about music and conveys to you to help you become better. He is always way hilarious')
('1169901', '14769094', 'MUSIC4800', '5', '2', '5', "Awesome choir director. Great instruction to his students, and quite aware of the goins-on in their lives. Really treated us like professionals. Try out for choir at USU and you'll love it.")
