('158850', '14922837', 'SECED101', '5', '1', '5', 'This woman is awesoem and although it has been over ten years since she taught me, I still think of her messages often!  Really lucky to have met her!')
('158850', '13289916', 'SECED5600', '4', '3', '5', 'I had lots of ESL student teaching support. This was my second class with Grace (3210. She was excited about diversity and was a fair grader.')
('158850', '11674856', 'SCED3210', '5', '3', '5', 'No Comments')
('158850', '1134168', 'SECED', '1', '3', '1', 'No Comments')
('158850', '701406', 'ESL', '3', '3', '3', "If you intend to student teach, here is one  mentor  you won't see much.")
('158850', '674059', 'SECED3210', '5', '4', '4', "Interesting, informative class; but grading scale requires 98% for an A!  It is possible since she's an easier grader.")
