('1413972', '24474307', 'SPAN3300', '3', '2', '4', "I took this class over the summer with him which was a big mistake; he said he felt obligated to give his students an education and crammed a lot of material in just 4 weeks.  He's an interesting guy and I can see why kids like him, but he seemed frustrated by the lack of participation from a class of only 9 students.   ")
('1413972', '23013108', 'SPAN3630', '5', '1', '5', 'JP is the best. He will be a mentor for life.')
('1413972', '20824332', 'SPAN3620', '4', '1', '5', 'Great professor.  Hard tests.  Expects a lot of his students, but really applies the subject material to life.')
('1413972', '18516446', 'SPAN3630', '5', '3', '5', 'Take as many classes from J.P. as you can.')
('1413972', '18083904', 'SPAN3510', '5', '1', '5', '')
('1413972', '18083829', 'SPAN3510', '5', '1', '5', '')
