('910086', '20807087', 'SPAN3100', '1', '2', '1', "Worst professor I have ever had.  She requires attendance, but doesn't talk about anything that will be on the exams, she just expects each student to study on their own outside of class.  Save yourself the headache.")
('910086', '19318982', 'SPAN2020', '1', '3', '1', "Worst professor ever.  She has the worst accent in the world.  Don't bother asking her for help, she doesn't ever know what she's talking about.  She claims to have all of this knowledge, yet she never seemed to use any of it.")
('910086', '18121426', 'SPAN3000', '3', '3', '3', "Insane amount of busy work. She wants you to learn but isn't the most organized so it's difficult to keep info straight. I've had better but I've had worse.")
('910086', '16674318', 'SPAN1020', '4', '2', '5', 'She is an incredible professor. She is tough, but she ensures that her students learn the material.')
('910086', '14835482', 'SPAN2010', '1', '1', '2', 'Really hard.  Thinks you are stupid')
('910086', '12621246', 'SPAN1010', '5', '2', '5', 'No Comments')
('910086', '12354561', 'SPAN1020', '1', '2', '1', "Take my word. WORST PROFESSOR at USU or, EVER. she teaches you nothing, relies on the TA to teach the material. SOOO much damn homework you can't even get a grasp of it. marks off points for tests for missing someting small like an accent. RIDICULOUS how someone like this can be able to teach at university level!")
