('1828963', '23134289', 'MATH1210', '5', '5', '5', 'Deborah is amazing, she makes an unbearable subject interesting, and she is very lenient and will work with you')
('1828963', '22520273', 'MATH1210', '5', '5', '5', 'Best professor ever, do the homework and you will be fine')
('1828963', '21967569', '1100', '5', '4', '5', 'Great teacher that made business calculus real simple and easy. I would highly recommend her.')
