('693241', '13428214', 'FCHD2610', '2', '2', '3', "Absolute worst teacher I've ever had, one you avoid in the halls! Hard to understand, speaks with a lisp. One of the rudest people I have ever met.  Test are ridiculously hard no matter how hard you study and read the text book.  I hard her for 3 different classes, not by choice, but lack of options.  Abuse and Neglect is easy though")
('693241', '12864232', 'FCHD2400', '4', '4', '3', 'Knows subject but she has a stutter that can drive a person nuts.')
('693241', '11320240', 'FCHD', '5', '4', '5', 'I learned a lot, she was fun and easy to relate with!')
('693241', '11182231', 'FCHD2400', '5', '4', '4', 'Easy to get an A if you do the readings and attend lecture. This class is full of information, and her way of presenting is straightforward. We did watch a couple videos in the class (fun!).')
('693241', '11032822', 'FHCD1500', '4', '3', '5', 'Way good professor. I loved her. Definately recommend.')
('693241', '10899867', 'FCHD2400', '3', '2', '2', 'Very boring, almost impossible to get an A, but only four tests and a paper')
