('936793', '19741592', 'IELI2410', '5', '1', '4', 'Lots of work outside class, but always related to in-class content.')
('936793', '18997769', 'IELI2410', '5', '1', '5', 'outstanding but tough')
('936793', '18000478', 'IELI2410', '4', '2', '4', 'Excellent, funny and focused')
('936793', '17338821', 'IELI2320', '4', '2', '4', 'worthwhile. small class. interesting and funny learned a lot')
('936793', '16747040', 'IELI2410', '5', '1', '5', 'excellent and fun')
('936793', '16065651', 'IELI2410', '5', '5', '5', 'Tough, funny, high standards')
('936793', '15749390', 'IELI2420', '5', '1', '5', 'lots of work but learned a lot pay attention in class he tests what he teaches')
('936793', '15665749', 'IELI2420', '5', '1', '5', 'tough fair learned a lot')
('936793', '15075327', 'IELI2410', '5', '1', '5', 'Tough demanding and funny')
('936793', '14819231', 'IELI2410', '5', '1', '5', 'tough but enlightening')
('936793', '14583681', 'IELI2410', '5', '1', '5', 'Funny, demanding')
('936793', '14583669', 'IELI2360', '5', '1', '5', 'Fun, Tough, Fair')
('936793', '13994422', 'IELI01', '5', '1', '5', 'WOW')
('936793', '13320095', 'LANG01', '4', '1', '4', 'No Comments')
('936793', '13057632', 'LLING1', '5', '1', '5', 'No Comments')
