('190005', '12195220', 'MAE1200', '3', '4', '4', 'Not the most clear descriptions, but a large part of it was that the CAD modeling program chosen (IDEAS) was terrible.')
('190005', '2021075', 'MAE1200', '4', '3', '4', 'He teaches pretty well, considering he is not a professor but comes from industry just to teach the class.')
('190005', '1546993', 'ENG', '1', '1', '1', 'No Comments')
('190005', '1437083', 'MAE1200', '5', '1', '5', 'No Comments')
('190005', '842802', 'MAE1200', '1', '3', '1', "He is absolutely without a doubt the most UNhelpful professor I have ever had in college. He expects you to already know everything, so if you don't already know everything about Engineering Graphics, avoid Prof. Brunson's class.")
