('129980', '20211300', 'SIGNA01', '3', '1', '4', 'Signals is a hard class. There is no way to get around this. There is a lot of material, so no time to review anything from previous classes. Be sure to review 2250 and dif-eq material before taking 3620.')
('129980', '17984588', 'ECE3620', '2', '1', '2', 'His class is pretty hard. He expects a lot from you and expects you to know everything about math before coming to class. He does a poor job with examples oftentimes leaving you to &quot;finish it on your own&quot;. The problem is know one knows how to do it. I would recommend studying more from his lecture note than the book')
('129980', '17939008', 'ECE3620', '4', '1', '3', "Dr. Budge wants you to know your stuff.  He expects you to know the material, whether he's talked about it in class or not.  I thought he was pretty good, but he demands a lot from you.  Expect plenty of homework.")
('129980', '13978489', 'EE5400', '1', '1', '1', 'bad')
('129980', '13551791', 'ECESECT', '4', '2', '2', 'Seems more interested in his research than educating the students.')
('129980', '10494939', 'ECE', '5', '5', '5', 'This guy kicks ass!!!')
