('1008276', '22019773', 'SPED7820', '5', '3', '5', 'This class was very difficult, but he made it possible to get an A. He was helpful and took as much time as he needed to explain the material.')
('1008276', '21515894', 'COMD6020', '4', '2', '5', 'A \\"must take\\" professor. He is really really good.')
('1008276', '13331030', 'SPED7810', '4', '3', '4', 'Excellent Instructor!')
