('669573', '20103317', 'ART3420', '4', '5', '4', "Professor is great. The class is very easy. No assignments, not anything, just attendance. Only 8-12 classes a semester. Guess speakers would go for each class, they're interesting most of the time. The professor would keep you up to day through email. Easy A.")
('669573', '12230560', 'ART0', '3', '4', '3', "He's okay. Funny, but condescending. I think he knows a lot, but doesn't seem interested in teaching.")
('669573', '10532598', 'ANY', '5', '2', '5', "The Alan Hashimoto experience is one of the best at Utah State. He's pretty much the man. He also knows where to find the best restaurants in Venice.")
('669573', '10493782', 'GRAPHICS', '5', '5', '5', 'No Comments')
('669573', '10493779', 'ANY', '5', '2', '4', 'truely a hip cat.')
('669573', '10208193', 'ART2400', '5', '3', '4', 'No Comments')
