('291772', '25619377', 'ELED4150', '3', '3', '3', 'The way the class is structured/graded is hard to understand at first, but by the middle of the semester you get the hang of it. He was a great teacher other than the lectures were very long and sometimes I learned nothing from them. He also comes off as full of himself and this can sometimes be annoying. ')
('291772', '14321915', 'ELED1000', '5', '3', '5', 'He is an amazing teacher.')
('291772', '11038078', 'ELED1000', '5', '3', '5', 'He is so nice and an awesome teacher.  I have learned so much from him.  He gives you the questions to the final at the beginning of the semester.  He made me want to be a teacher even more!')
('291772', '10715128', 'ELED1010', '5', '1', '5', 'No Comments')
('291772', '2554500', 'EDUC', '5', '3', '5', "Great professor!  Very knowledgeable and very detailed. Fun class! Takes teaching to a new level-is involved and enthusiastic! By far the best educ class I've taken! He expects a lot, but worth taking from him!")
('291772', '1355100', 'ELED1000', '5', '3', '5', 'No Comments')
