('390788', '25428247', 'ENGL2010', '5', '4', '4', 'His class for ENGL2010 was an absolute blast. He takes an unconventional approach that really makes you think, and it actually makes the writing a lot more fun.')
('390788', '24408606', 'ENGL2010', '5', '4', '4', 'Really cares about his students. His assignments make you think. Enjoyable enough though. Hilarious in class. Usually lets you out of class early.  No textbook required.')
('390788', '23614753', 'ENGL3030', '5', '3', '3', 'This was my favorite class. Robb is hilarious, insightful, and the literature he chose was phenomenal. I thoroughly enjoyed the reading, even though it was hefty. The tests were easy (as long as you were caught up on the reading and came to class). ')
('390788', '23191247', 'ENG2010', '5', '3', '5', 'Robb is easily the best teacher I have ever had. He is intelligent, informed, funny, caring, amazing speaker and interesting-not boring in the least. If you have the opportunity to take a course from him DO IT.')
('390788', '22332085', 'ENGL2010', '5', '4', '5', "Robb is easily my favorite professor I've had at Utah State! He made English 2010 interesting by always talking about subjects that caused us to really think and consider things. He pushed us out of our comfort zones and wasn't afraid to openly discuss taboo subjects. He's a really cool guy.No question, take English 2010 from him!")
('390788', '22294145', 'ENGL2010', '5', '4', '5', 'Awesome guy. He made a class I though I was going to dread awesome.')
('390788', '20897924', 'ENGL2010', '4', '2', '5', "Robb Kunz is one of the best professors you will ever have. He's makes English, a usually dull subject, into something interesting. He is a also a stand up guy, super nice, and will help you out on a personal level.")
('390788', '20855551', 'ENG2010', '5', '3', '5', "I love Robb! There's not a dull moment  in class. His assignments aren't too easy, but it helps you in the long run.")
('390788', '20854768', 'ENGL2010', '5', '2', '5', "I really like him as a teacher. His assignments are difficult, but thought provoking. He isn't fussy about minor grammar errors but makes sure you know what you need to. I love his class!")
('390788', '20765122', 'ENGL2010', '4', '5', '4', "Teaching rhetoric through Kill Bill, what will they think of next? I've heard a lot of complaints from people taking ENGL2010, but they must not have taken it from Robb.")
('390788', '20553277', 'ENGL2010', '5', '3', '5', 'Exceptional teacher. Engaging teaching style. Kudos to him for presenting challenging, thought provoking material.')
('390788', '18450526', 'ENGL2010', '5', '4', '5', 'Great professor. Made English very enjoyable and interesting. Always on top of getting back to students and getting grades back. Very Blackboard-oriented which is very helpful.')
('390788', '15777435', 'ENG102', '5', '2', '4', 'Cool guy who made english fun and exciting with his in class activities')
('390788', '11565121', 'ENG1010', '5', '3', '5', "Best teacher i've ever had.  I hate english, but he made it my favorite class.")
('390788', '10357561', 'ENGLISH1010', '5', '5', '5', 'I &lt;3 Robb')
('390788', '10238446', '1010', '5', '5', '5', 'rob was a great teacher, he made english interesting, and i actually got an A so thats a bonus for sure.')
('390788', '1998746', 'ENG1010', '5', '5', '5', 'awesome teacher! totally easy and great guy to get to know.')
