('1783376', '23753417', 'ENGLISH1102', '2', '2', '2', 'She is very unclear on what she expects on assignments. She seems to be all over the place and is very confusing. Gives way too many assignments.')
('1783376', '21482131', 'ENG2010', '2', '2', '4', 'Way to much homework and busy work for an english class.  Very nice and willing to work with.  Just too much.  Boring in class')
('1783376', '21093006', 'ENG2010', '1', '2', '2', "Nice young lady, but she will give you 2 or 3 times more work than any other english class. Plus, it's hard to understand what she wants on her assignments.")
