('936623', '19592290', 'PEP3100', '2', '2', '2', 'He is an okay professor, but he loves putting people on the spot and excels at making his students look stupid.')
('936623', '18038751', 'PEP3100', '4', '4', '5', "Great Teacher. puts what he teaches into real life situations. Excellent Class and he's pretty funny too.")
('936623', '14344153', 'PEP2020', '3', '5', '3', 'Very easy class.')
('936623', '12619221', 'PEP3100', '4', '3', '1', "He is a good teacher, but personally he was intimidating. I would recommend his class though.  caution: He isn't the easiest to work with if you are not an athelte.")
