('781263', '25023000', 'MIS4330', '3', '3', '4', "Dr. Olsen is a great professor. He has lots of experience with the topic and always makes class interesting. While reading the textbook was important I mainly read the powerpoints he posted before quizes and I did as well as anyone else. Don't worry too much if your quiz scores aren't great, he makes grades work out in the end.")
('781263', '24583763', 'MIS4330', '4', '1', '4', 'Professor Olsen is a wonderful professor. You will delve into SQL like you have never known. You do need to expect quizzes. You will have on average 1 quiz a week and the quizzes are very tough. Expect to read 100+ pages a week in a book that cost $200+.The many groups projects  will include a copious amount of work and time.')
('781263', '22956157', 'MIS', '5', '1', '5', 'The depth of database SQL was amazing.  It was so helpful  in helping me get a job.')
('781263', '22783621', 'MIS4330', '5', '1', '5', 'Best professor at USU.  Teaches database so well and obviously loves it.  Cares about the students a lot but is strict about being on time.  I recommend it to everyone.')
('781263', '22194786', 'MIS6230', '5', '1', '5', 'He teaches a fantastic database class.  We went through hundreds of SQL queries and he gave us a ton homework making databases.  Great class if you want a database job.')
('781263', '20747948', 'MIS3330', '5', '1', '5', 'Great teacher.  Loves the students and knows everything about databases.  Best ever.')
('781263', '19136117', 'MIS3330', '5', '3', '5', "One of the best professors I have had at USU. His homework is repetitive and kills a lot of trees (too much printing), but it's fair. Some of his exam questions are poorly worded. Beyond that, easily among my favorites. Highly recommend.")
('781263', '18921723', 'MIS001', '5', '2', '5', 'David is an excellent professor. He is clear, concise, and approaches his class with a lot of energy. My only complaint: he wears funny looking shoes.')
('781263', '18007476', 'MIS3330', '4', '3', '5', 'Excellent professor. His methods work very well for getting a lot of information across to a wide range of students.')
('781263', '17774226', 'MIS3330', '5', '4', '5', "Dave is easily one of the best professors I've had at USU.  Database is a very marketable skill and as long as you go to class and do the required work you will actually learn something.  &quot;Two thumbs WAY Way up!&quot;")
('781263', '17672316', 'MIS3330', '4', '4', '4', "The best teacher I've had at USU. He is really easy going and wants you to learn and to succeed in the class and in life. Would take another class from him in a heart beat.")
('781263', '15495089', 'MIS3330', '5', '1', '5', "Smart and love's students!!!")
('781263', '15159381', 'MIS3330', '5', '1', '5', 'Best professor at Utah State.  He teaches database the best of anyone!!!')
('781263', '14865711', 'MIS3330', '4', '4', '4', 'Great class, the teacher wants everyone to get a good job in database areas.')
('781263', '14456255', 'MIS4330', '4', '4', '5', 'No Comments')
('781263', '11167267', 'BIS3330', '5', '2', '5', 'His class is very difficult.  However, when you are done with his class, you can actually claim that you learned something.')
