('786769', '26151842', 'PSC4050', '2', '2', '2', 'Assignments are unexplained and unclear. Test questions are tricky. The class is only offered at 7:30.')
('786769', '18929449', 'PSC3400', '5', '5', '5', 'My favorite PSC professor! So straightforward and easy to get along with. Great guy, great prof.')
('786769', '14061443', 'PLSC3300', '5', '2', '5', 'Great teacher.  Really fun.')
