('749132', '16196255', 'ENGLGRAD', '4', '2', '3', "One of the most eloquent teachers I've ever had. Anne is thoughtful, calm, poised, and our discussions were always challenging. I enjoyed her class and the reading. I wish I could structure sentences the way she does.")
('749132', '14612169', 'ENGLS2150', '2', '4', '1', 'I scored high on all her tests (she only gives tests) but half way through the semester I got sick and missed probably 5 classes.  She gave me a C because I missed those classes, even though they were excused.  I dislike her methods and do not look forward to taking a class from her next semester.')
('749132', '14268424', 'ENGL2150', '4', '3', '2', 'Good teacher, kind of flighty.')
('749132', '13343786', 'ENGL2600', '2', '3', '2', 'Not one of my favorite teachers. I probably would not take a class from her again. She is nice, but disinteresting.')
('749132', '12912293', 'ENGSECT', '1', '4', '1', 'No Comments')
('749132', '11829738', 'MODERNPOETRY', '4', '2', '5', 'she was one of fav teachers')
