('691773', '19813061', 'PHYSI400', '5', '1', '5', "This guy is a wonderful teacher. The pacing DOES get on your nerves but it is worth it to hear all his witticisms  He is very helpful if you don't understand. I recommend him highly.PLUS he is so  cute!!!!!")
('691773', '19812781', 'PHYS434', '5', '1', '5', 'I love this class! He makes it fun. Plus, he seems cool.')
('691773', '16085252', 'PHYX3700', '2', '3', '4', "No doubt he is brilliant, and one sees some of this brilliance shared over the course of a semester.  He tends to pace back and forth and glare, pontificating philosophically and asking the class confusing questions. He tends to get way off-topic, but his lecture notes are excellent.  You'll be fairly amused and enlightened.  Work hard!")
('691773', '15461382', 'PHYX3700', '5', '2', '5', "good class, he keeps the class intresting, and is funny. He explains things well and makes sense, unlike some physics professors. Better looking then most too. Homework is hard but his exams have been pretty fair. Hes good at explaining tough concepts at the students level and doesn't make you feel dumb if you ask for help on homework questions.")
('691773', '14653181', 'PHYX40', '5', '1', '5', "I think this man knows everything, He's a good lecturer and really attractive! Probably the best in this field at USU.")
('691773', '14344518', 'PHYS2200', '5', '2', '5', 'super awsome')
('691773', '14228235', 'PHY400', '5', '3', '5', "Really good teacher. Doesn't make you feel stupid when you ask a dumb question.A hot guy.")
('691773', '14228019', 'PHYS400', '5', '3', '5', 'This is the BEST professor I have ever had. He is super &quot;hot&quot; too. I wonder what will happen!&#63;')
('691773', '13192867', 'PHYS2200', '5', '3', '5', 'He is a super hottie and an awezome teacher!!! lolzzz')
('691773', '12534262', 'PHYSI191', '5', '3', '5', 'No Comments')
('691773', '10624606', 'PHYSICS2220', '4', '3', '4', 'One of the best teachers at USU, teaches to dumb people, although one of the brightest physicists in the country. Very easy tests, compared to others.')
('691773', '10423126', 'PHYX2220', '5', '4', '5', 'His teaching is energetic and fun.  He makes the most use out of class time and still takes questions.')
