('1024805', '16785698', 'POLS1100', '2', '3', '1', 'He teaches Karate and is very arrogant. He thinks he know everything.  I Would take anyone else.  I agree with the unprofessional.')
('1024805', '16269520', 'PS1100', '4', '3', '5', "this prof expects us to work, read and form an opinion of our own, based on logic and evidence. usually those who can't do those things don't like him, everyone else think he's just fun!")
('1024805', '15288710', 'POLS1700', '2', '4', '1', 'Take anyone else if you can.')
('1024805', '14429011', 'POLS1100', '2', '3', '1', 'Unprofessional,')
('1024805', '14076470', 'POL1100', '2', '1', '1', "Main answer to question is I don't care.  Big ego and talks down to you. Don't question anything because he would never make a mistake")
('1024805', '12134843', 'POLISCI1200', '4', '3', '5', 'Steve is an awesome guy, but his class is very boring. The first exam is very difficult, the second is simple, and all the other points are kind of given. He makes sure it is not too difficult to get an A. I would recommend him.')
