('435092', '10833960', 'PROFESIONALWRI', '5', '3', '5', 'No Comments')
('435092', '3845261', 'ENG', '5', '1', '5', 'One of the best teachers I have ever had.  You will learn more from him than you could have ever imagined.  He is very helpful and loves to see his students succeed.')
('435092', '2325837', 'ENG64', '5', '1', '5', 'A killer! Will work you to death, but when you are done, you will know the subject matter. Lots of reading, lots of homework. However, always available for help and willing to give you the benefit of the doubt.')
